10 4
9 4
6 4
6 4
9 4
5 4
8 4
7 4
14 4
3 4
3 4
2 4
1 4
2 8
2 4
1 4
2 4
2 4
4 4
1 4
10 16
9 16
8 16
11 16
10 16
8 16
10 16
10 16
11 16
8 16
16 2
16 2
13 2
16 2
16 2
13 2
16 2
16 2
14 2
9 2
2 8
6 8
10 8
5 8
4 8
10 8
4 8
5 8
0 8
13 8
6 2
3 2
1 2
5 2
4 2
1 2
4 2
4 2
8 2
0 2
1 8
3 8
8 8
4 8
3 8
8 8
3 8
4 8
0 8
11 8
0 8
1 8
3 8
0 8
0 8
3 8
0 8
0 8
1 8
6 8
16 8
15 8
13 8
14 8
15 8
13 8
15 8
14 8
15 8
11 8
2 4
4 4
7 4
4 4
4 4
7 4
4 4
4 4
1 4
9 4
16 2
15 2
13 2
15 2
16 2
13 2
16 2
15 2
15 2
11 2
15 8
14 16
15 16
16 16
15 16
15 16
15 16
15 8
13 8
16 16
2 8
0 8
0 8
0 8
1 8
1 8
0 8
0 8
5 8
2 8
16 2
16 2
15 2
16 2
16 2
15 2
16 2
16 2
16 2
15 2
1 2
0 2
0 2
1 2
0 2
0 2
1 2
1 2
0 2
0 2
8 2
10 2
13 2
10 2
9 2
13 2
10 2
10 2
4 2
15 2
4 2
7 2
11 2
8 2
6 2
11 2
6 2
7 2
1 2
14 2
5 8
8 8
12 8
10 4
7 8
12 8
7 8
9 8
1 8
15 8
2 2
5 2
7 2
2 2
2 2
8 2
3 2
3 2
1 2
9 2
16 2
16 2
14 2
16 2
16 2
13 2
16 2
16 2
13 2
11 2
15 4
14 4
14 4
14 4
14 4
15 4
15 4
15 4
14 4
14 4
13 8
13 8
14 8
13 8
13 8
14 8
13 8
13 8
12 8
14 8
1 4
1 4
0 4
0 4
0 4
0 4
0 4
0 4
3 4
0 4
13 4
15 4
16 4
15 4
14 4
16 4
14 4
15 4
10 4
16 4
14 4
14 4
12 4
12 4
14 4
11 4
13 4
13 4
16 4
10 4
16 2
16 2
16 2
16 2
16 2
16 2
16 2
16 2
16 2
16 2
11 32
11 16
10 16
11 16
11 16
10 16
11 16
11 32
11 16
10 16
4 4
4 4
4 8
4 4
3 8
4 4
3 8
4 4
5 8
4 4
2 4
0 4
0 4
0 4
1 4
0 4
1 4
0 4
6 4
2 4
12 2
9 2
5 2
10 2
11 2
5 2
11 2
10 2
15 2
3 2
13 8
13 8
13 8
13 8
13 8
13 8
13 8
13 8
13 8
13 8
9 8
9 8
11 8
10 8
10 8
11 8
10 8
10 8
7 8
12 8
13 8
15 16
16 8
15 16
14 8
16 8
14 8
15 16
8 8
15 16
1 4
2 4
3 4
2 4
2 4
4 4
2 4
2 4
0 4
5 4
9 2
10 2
10 2
9 2
9 2
10 2
9 2
9 2
8 2
10 2
0 8
0 8
0 8
0 8
0 8
0 8
0 8
0 8
0 8
0 8
1 2
2 2
6 2
2 2
1 2
7 2
2 2
2 2
0 2
9 2
16 8
16 8
15 8
16 8
16 8
15 8
16 8
16 8
16 8
15 8
6 4
8 4
11 2
7 4
8 2
11 2
8 2
8 4
4 2
12 4
8 8
7 8
6 8
9 8
8 8
6 8
8 8
8 8
8 8
6 8
6 4
9 4
13 4
11 4
8 4
13 4
8 4
10 4
2 4
15 4
13 8
14 8
14 8
13 8
13 8
14 8
13 8
13 8
13 8
14 8
0 8
1 8
4 8
1 8
1 8
4 8
1 8
1 8
0 8
6 8
6 32
5 32
7 32
9 32
7 32
7 32
8 32
8 32
3 32
9 32
8 4
11 4
15 4
10 4
10 4
15 4
10 4
10 4
4 4
16 4
9 8
9 8
10 8
8 8
9 8
10 8
9 8
9 8
9 8
9 8
0 8
1 8
3 8
1 8
0 8
3 8
1 8
1 8
1 8
5 8
1 2
0 2
1 2
0 2
0 2
1 2
0 2
0 2
4 2
3 2
9 4
11 4
14 4
13 4
11 4
14 4
11 4
13 4
5 4
16 4
4 8
4 8
3 8
2 16
4 8
2 8
3 8
2 8
7 8
1 8
11 8
9 8
5 8
8 8
9 8
4 8
8 8
8 8
15 8
2 8
0 4
0 4
1 4
0 4
0 4
1 4
0 4
0 4
0 4
1 4
1 4
1 4
2 4
1 2
1 4
2 4
1 4
1 4
0 4
3 4
5 8
4 8
4 8
5 8
5 8
5 8
5 8
5 8
5 8
4 8
1 16
1 16
1 16
2 16
1 16
1 16
1 16
1 16
1 16
1 16
0 4
0 4
0 4
0 8
0 4
0 4
0 4
0 4
0 4
0 4
11 4
13 4
15 4
15 4
13 4
15 4
13 4
14 4
6 4
16 4
0 32
0 32
3 32
1 32
0 32
3 32
0 32
1 32
2 32
6 32
4 2
5 2
4 2
4 2
4 2
4 2
4 2
3 2
5 2
5 2
12 16
14 16
16 16
14 16
13 16
16 16
14 16
14 16
7 16
16 16
9 2
11 2
13 2
10 2
11 2
13 2
11 2
11 2
7 2
14 2
2 8
1 8
0 8
0 8
1 8
0 8
0 8
0 8
5 8
1 8
10 4
7 4
3 4
7 4
8 4
2 4
8 4
7 4
14 4
1 4
10 16
12 8
15 16
12 8
11 16
15 16
12 16
12 16
7 16
15 16
15 32
13 32
8 32
12 32
13 32
8 32
13 32
12 32
16 32
6 32
5 4
5 4
4 4
7 4
5 4
4 4
5 4
6 4
5 4
5 4
8 2
8 2
8 2
8 2
8 2
8 2
8 2
8 2
8 2
8 2
16 4
16 8
16 4
16 8
16 4
16 4
16 4
16 4
14 4
15 8
13 8
15 8
15 8
12 8
14 8
16 8
14 8
13 8
12 8
15 8
14 2
14 2
15 2
15 2
15 2
15 2
15 2
15 2
12 2
16 2
16 2
16 2
16 2
16 2
16 2
16 2
16 2
16 2
16 2
16 2
11 32
11 16
10 16
11 16
11 16
10 16
11 16
11 32
11 16
10 16
4 4
4 4
4 8
4 4
3 8
4 4
3 8
4 4
5 8
4 4
2 4
0 4
0 4
0 4
1 4
0 4
1 4
0 4
6 4
2 4
12 2
9 2
5 2
10 2
11 2
5 2
11 2
10 2
15 2
3 2
13 8
13 8
13 8
13 8
13 8
13 8
13 8
13 8
13 8
13 8
9 8
9 8
11 8
10 8
10 8
11 8
10 8
10 8
7 8
12 8
13 8
15 16
16 8
15 16
14 8
16 8
14 8
15 16
8 8
15 16
1 4
2 4
3 4
2 4
2 4
4 4
2 4
2 4
0 4
5 4
9 2
10 2
10 2
9 2
9 2
10 2
9 2
9 2
8 2
10 2
0 8
0 8
0 8
0 8
0 8
0 8
0 8
0 8
0 8
0 8
1 2
2 2
6 2
2 2
1 2
7 2
2 2
2 2
0 2
9 2
16 8
16 8
15 8
16 8
16 8
15 8
16 8
16 8
16 8
15 8
6 4
8 4
11 2
7 4
8 2
11 2
8 2
8 4
4 2
12 4
8 8
7 8
6 8
9 8
8 8
6 8
8 8
8 8
8 8
6 8
6 4
9 4
13 4
11 4
8 4
13 4
8 4
10 4
2 4
15 4
13 8
14 8
14 8
13 8
13 8
14 8
13 8
13 8
13 8
14 8
0 8
1 8
4 8
1 8
1 8
4 8
1 8
1 8
0 8
6 8
6 32
5 32
7 32
9 32
7 32
7 32
8 32
8 32
3 32
9 32
8 4
11 4
15 4
10 4
10 4
15 4
10 4
10 4
4 4
16 4
9 8
9 8
10 8
8 8
9 8
10 8
9 8
9 8
9 8
9 8
0 8
1 8
3 8
1 8
0 8
3 8
1 8
1 8
1 8
5 8
1 2
0 2
1 2
0 2
0 2
1 2
0 2
0 2
4 2
3 2
9 4
11 4
14 4
13 4
11 4
14 4
11 4
13 4
5 4
16 4
4 8
4 8
3 8
2 16
4 8
2 8
3 8
2 8
7 8
1 8
11 8
9 8
5 8
8 8
9 8
4 8
8 8
8 8
15 8
2 8
0 4
0 4
1 4
0 4
0 4
1 4
0 4
0 4
0 4
1 4
1 4
1 4
2 4
1 2
1 4
2 4
1 4
1 4
0 4
3 4
5 8
4 8
4 8
5 8
5 8
5 8
5 8
5 8
5 8
4 8
1 16
1 16
1 16
2 16
1 16
1 16
1 16
1 16
1 16
1 16