5 2
5 2
5 2
7 2
6 4
6 2
7 2
7 4
7 2
9 2
8 4
8 4
5 2
5 2
5 2
7 2
6 4
6 2
7 2
7 4
7 2
9 2
8 4
8 4
5 2
5 2
5 2
7 2
6 4
6 2
7 2
7 4
7 2
9 2
8 4
8 2
8 2
7 4
6 4
6 4
6 2
7 2
6 4
6 8
9 8
8 4
8 2
9 2
9 2
9 2
9 4
11 4
11 2
13 2
13 4
13 2
15 2
8 4
8 2
9 2
9 2
9 2
9 4
11 4
11 2
13 2
13 2
13 2
15 4
8 4
8 2
9 2
9 2
9 2
9 4
11 4
11 2
13 2
13 2
13 2
15 4
15 4
9 4
9 4
9 2
9 2
9 4
9 8
11 2
13 2
15 4
9 4
13 4
11 4
13 4
13 4
15 4
15 4
15 2
15 2
11 4
11 2
13 2
13 2
15 2
13 4
15 4
15 2
15 2
15 4
16 4
15 4
15 2
15 2
15 2
15 2
16 4
6 2
7 2
7 2
8 2
8 2
9 2
7 2
6 2
15 4
15 4
15 4
16 4
15 4
15 4
15 2
15 2
15 4
6 4
5 4
7 2
6 2
0 4
8 4
7 2
8 2
8 4
8 4
8 4
5 4
7 4
6 4
6 4
7 4
6 2
8 2
8 4
0 4
6 4
5 4
7 2
6 2
0 4
8 4
7 2
8 2
8 4
8 4
8 4
5 4
7 4
6 4
6 4
7 4
6 2
8 2
8 4
0 4
7 4
6 4
6 4
6 2
7 2
6 4
6 8
9 8
8 4
11 4
9 4
9 4
11 4
11 4
13 4
0 8
8 4
8 4
11 2
9 2
13 4
11 4
11 4
11 2
9 2
13 2
15 2
15 4
8 4
11 4
9 4
9 2
13 2
11 4
11 4
13 4
0 4
11 4
9 4
9 4
9 4
9 4
9 4
13 4
11 4
15 4
11 4
9 4
13 4
11 4
11 4
13 8
15 8
13 4
11 4
15 4
11 4
13 4
13 2
11 2
15 8
16 4
15 4
15 2
15 2
15 4
16 4
15 4
15 4
15 2
15 2
15 4
9 2
8 2
8 4
8 4
11 4
9 2
13 2
11 4
11 2
13 2
13 2
15 2
15 4
9 4
9 4
9 2
11 2
9 4
11 2
9 2
13 4
13 4
15 4
15 4
11 4
13 4
11 4
13 4
15 4
15 4
15 8
15 4
15 4
15 4
7 2
6 2
6 2
7 2
7 2
8 2
8 2
9 2
7 2
6 2
15 4
15 4
15 2
15 2
15 4
15 4
15 4
15 2
15 2
15 4
6 4
5 4
7 4
6 4
7 4
7 4
8 4
8 4
8 4
8 4
5 4
7 4
6 4
6 4
7 2
6 2
8 4
8 8
8 4
5 4
7 4
6 4
6 4
7 2
6 2
8 4
8 8
6 4
6 4
6 4
6 4
7 4
6 4
13 4
13 4
15 4
8 4
11 4
11 4
9 4
13 4
11 4
11 4
11 4
13 4
8 4
8 4
11 4
9 4
13 2
11 2
11 4
11 2
9 2
13 4
8 4
11 4
9 4
9 4
13 2
11 2
11 4
11 4
13 4
11 4
9 4
9 4
9 4
9 4
9 4
13 4
11 4
15 4
15 4
9 4
13 4
11 4
11 4
13 8
15 8
13 4
11 4
13 4
9 4
13 4
15 2
9 2
15 8
16 4
15 4
15 4
15 4
16 4
15 4
15 4
15 2
15 2
15 4
9 4
8 4
8 4
8 4
11 4
9 2
13 2
11 4
11 2
13 2
13 2
15 2
15 4
9 4
9 4
9 2
11 2
9 4
11 2
9 2
13 4
13 4
15 4
15 4
11 4
13 4
11 4
13 4
15 4
15 4
16 8
15 4
15 4
15 4
7 2
6 2
6 2
7 2
7 2
8 2
8 2
9 2
7 2
6 2
15 4
15 4
15 4
7 2
6 2
6 2
7 2
7 2
8 2
8 2
9 2
7 2
6 2
15 4
15 4
15 4
16 4
15 4
15 4
15 2
15 2
15 4
6 4
5 4
5 4
5 2
7 2
6 2
8 2
7 4
6 4
8 4
8 4
8 4
5 4
7 4
6 4
6 4
7 2
6 2
8 4
8 8
8 4
5 4
7 4
6 4
6 4
7 2
6 2
8 4
8 4
0 4
6 4
6 4
6 4
6 4
6 4
6 8
9 8
8 4
11 4
8 4
9 4
11 4
11 4
13 4
0 4
8 4
8 4
11 2
9 2
0 4
13 2
9 2
11 4
11 2
9 2
13 4
15 4
8 4
11 4
9 4
9 4
11 2
9 2
11 4
13 4
0 4
11 4
9 4
9 4
9 4
9 4
9 4
13 4
11 4
15 4
15 4
9 4
13 4
11 4
11 4
13 8
15 8
13 4
11 4
13 4
11 4
13 4
15 2
9 2
15 8
16 4
15 4
15 4
15 4
16 4
15 4
15 4
15 2
15 2
15 4
9 4
8 4
8 4
8 4
11 4
9 2
13 2
11 4
11 2
13 2
13 2
15 2
15 4
9 4
9 4
9 2
13 2
11 2
15 2
11 4
13 4
13 4
0 4
15 4
11 4
13 4
11 4
13 2
15 2
15 8
15 4
0 4
15 4
15 4
15 4
7 2
6 2
6 2
7 2
7 2
8 2
8 2
9 2
7 2
6 2
15 4
15 4
15 4
7 2
6 2
6 2
7 2
7 2
8 2
8 2
9 2
7 2
6 2
15 4
15 4
15 2
15 2
15 4
15 4
15 4
15 2
15 2
15 4
6 4
5 4
7 4
6 4
8 4
7 4
8 4
8 4
8 4
5 4
7 4
6 4
6 4
7 4
6 4
8 8
8 4
5 4
7 4
6 4
6 4
7 4
6 4
8 4
0 4
6 4
6 4
6 4
6 4
7 4
6 8
9 4
11 4
8 4
11 4
9 4
9 4
13 2
9 2
11 4
11 1
9 1
13 2
8 4
8 4
11 4
9 4
11 4
11 4
11 2
9 2
13 4
15 4
8 4
11 4
9 4
9 4
13 4
11 4
11 4
11 2
13 2
0 4
11 4
9 4
9 4
9 4
9 4
9 4
13 4
11 4
15 4
15 4
9 4
13 4
11 4
11 4
13 8
15 8
13 4
11 4
13 4
11 4
13 4
15 2
9 2
15 8
16 4
15 4
15 4
15 4
16 4
15 4
15 4
15 2
15 2
15 4
9 4
8 4
8 4
11 4
9 4
13 2
11 2
11 2
13 2
13 2
15 2
15 4
9 4
9 4
9 2
13 2
11 2
13 2
11 2
9 2
13 4
13 4
0 4
13 4
11 4
13 4
11 4
13 4
15 4
15 4
15 4
16 4
15 4
15 4
15 4
7 2
6 2
6 2
7 2
7 2
8 2
8 2
9 2
7 2
6 2
15 4
15 4
15 4
7 2
6 2
6 2
7 2
7 2
8 2
8 2
9 2
7 2
6 2
15 4
15 4
15 2
15 2
15 4
15 4
15 4
15 2
15 2
15 4
6 4
5 4
7 4
6 4
7 4
6 4
8 4
8 4
8 4
5 4
7 4
6 4
6 4
7 2
6 2
8 4
8 8
8 4
5 4
7 4
6 2
8 2
6 4
7 2
6 2
8 4
8 4
0 4
6 4
6 4
6 4
6 4
6 4
9 8
9 4
8 4
11 4
11 4
9 4
11 4
11 4
13 4
0 4
8 4
8 4
11 4
9 4
13 4
11 4
11 4
11 4
13 4
11 4
8 4
11 4
9 4
9 4
13 4
11 4
11 2
13 2
0 4
11 4
9 4
9 4
9 4
9 4
9 4
13 4
11 4
15 4
15 4
9 4
13 4
11 4
11 4
13 8
15 8
13 4
11 4
13 4
11 4
13 4
15 2
9 2
15 8
16 4
15 4
15 4
15 4
16 4
15 4
15 4
15 2
15 2
15 4
9 2
8 2
8 4
8 4
11 4
9 2
13 2
11 4
11 2
13 2
13 2
15 2
15 4
9 4
9 4
9 2
13 2
11 2
15 2
11 4
13 8
0 4
15 4
11 4
13 4
11 4
13 4
15 4
15 4
15 4
16 4
15 4
15 4
15 4
7 2
6 2
6 2
7 2
7 2
8 2
8 2
9 2
7 2
6 2
15 4
15 4
15 4
7 2
6 2
6 2
7 2
7 2
8 2
8 2
9 2
7 2
6 2
15 4
15 4
15 2
15 2
15 4
15 4
15 4
15 2
15 2
15 4
6 2
5 2
7 4
6 2
8 2
6 4
7 4
6 4
8 4
8 4
8 4
5 4
7 4
6 4
6 4
7 4
6 4
8 8
8 4
5 4
7 4
6 4
6 4
7 4
6 4
8 4
0 4
6 4
6 4
6 2
7 2
6 2
7 2
6 4
9 4
9 4
11 4
8 4
11 4
11 2
8 2
9 4
13 4
11 4
11 4
11 4
13 4
8 4
8 4
11 4
9 4
13 4
11 4
11 4
11 2
9 2
13 2
15 2
15 4
8 4
11 4
9 4
9 4
13 2
11 2
11 4
11 2
13 2
0 4
11 4
9 4
9 4
9 4
9 4
9 4
13 4
11 4
15 4
15 4
9 4
13 4
11 4
11 4
13 8
15 8
13 4
11 4
13 4
11 4
13 4
15 2
9 2
15 8
16 4
15 4
15 4
15 4
16 4
15 4
15 4
15 2
15 2
15 4
9 4
8 4
8 4
8 4
11 4
9 2
13 2
11 4
11 2
13 2
13 2
15 2
15 4
9 4
9 4
9 4
11 4
11 1
9 1
13 4
13 4
0 4
15 4
11 4
13 4
11 4
13 4
15 4
15 4
15 4
16 4
15 4
15 4
15 4
7 2
6 2
6 2
7 2
7 2
8 2
8 2
9 2
7 2
6 2
15 4
15 4
15 4
7 2
6 2
6 2
7 2
7 2
8 2
8 2
9 2
7 2
6 2
15 4
15 4
15 2
15 2
15 4
15 4
15 4
15 2
15 2
15 4
6 4
5 4
7 4
7 4
6 4
7 4
6 4
8 4
8 4
8 4
8 4
5 4
7 4
6 4
6 4
7 4
6 4
8 8
8 4
5 4
7 4
6 4
6 4
7 4
6 4
8 4
0 4
6 4
6 4
6 4
6 4
6 8
9 4
11 4
8 4
11 4
11 2
8 2
9 4
13 4
11 4
11 4
11 4
13 4
