9 4
6 2
6 2
6 2
7 2
6 4
6 4
6 2
7 2
7 2
7 2
7 4
7 4
7 2
8 2
8 2
8 2
8 4
8 4
8 2
9 2
9 2
9 2
9 4
9 4
6 2
6 2
6 2
7 2
6 4
6 4
6 2
7 2
7 2
7 2
7 4
7 4
6 2
8 2
8 2
8 2
8 4
8 4
8 2
9 2
9 2
9 2
11 4
9 4
8 4
8 4
8 4
8 4
8 4
8 2
9 2
9 2
9 2
9 4
9 4
9 2
11 2
11 2
13 2
11 2
13 2
11 4
11 2
13 2
13 4
13 2
15 2
15 8
16 4
15 4
15 4
15 2
15 2
15 4
11 4
9 4
9 4
9 2
9 2
9 4
9 4
9 2
11 2
11 2
13 2
11 4
11 4
11 2
13 2
13 2
13 2
13 4
13 4
13 2
15 2
15 2
15 2
15 4
15 4
11 2
13 2
11 2
13 2
11 4
11 4
11 2
13 2
13 2
13 2
13 4
13 4
13 2
15 2
15 2
15 2
15 4
15 4
15 4
15 2
15 2
15 4
6 2
7 2
7 2
8 2
8 2
9 2
7 2
6 2
15 4
15 4
15 2
15 2
15 4
7 4
6 4
6 4
6 2
7 2
6 4
6 4
6 1
5 1
7 2
7 8
7 4
7 1
6 1
8 2
8 4
8 4
8 4
8 1
7 1
9 2
9 8
7 4
6 4
6 4
6 2
7 2
6 4
6 4
6 1
5 1
7 2
7 8
7 4
7 1
6 1
8 2
8 4
8 4
8 4
8 1
7 1
9 2
9 4
9 2
11 2
9 4
8 4
8 4
8 4
8 4
8 4
8 1
7 1
9 2
9 8
9 4
9 4
13 4
11 4
11 4
11 4
11 1
9 1
13 2
13 4
13 2
15 2
15 8
16 4
15 4
15 4
15 2
15 2
15 4
11 4
9 4
9 4
9 4
9 4
9 4
9 1
8 1
11 2
11 8
11 4
11 1
9 1
13 2
13 4
13 4
13 2
11 2
15 4
15 8
0 4
15 2
11 2
11 2
9 2
13 4
11 4
11 1
9 1
13 2
13 8
13 2
13 2
13 1
11 1
15 2
15 4
15 4
15 4
15 8
16 4
15 4
15 4
15 2
15 2
16 4
15 4
15 4
15 2
15 2
15 4
9 4
8 4
8 4
8 4
8 4
8 4
8 1
7 1
9 2
9 8
9 4
9 2
13 2
11 4
11 4
11 4
11 1
9 1
13 2
13 4
13 2
15 2
11 4
9 2
9 2
9 4
9 4
9 4
9 2
13 2
11 8
11 4
11 4
13 4
13 4
13 4
13 2
11 2
15 4
15 8
0 4
15 2
11 2
11 2
9 2
13 4
11 4
11 1
9 1
13 2
13 8
13 2
13 2
13 1
11 1
15 2
15 4
15 4
15 4
15 8
15 4
15 4
15 4
15 2
15 2
16 4
15 4
15 4
15 2
15 2
15 4
16 2
7 2
7 2
8 2
8 2
9 2
7 2
16 2
15 4
15 4
15 2
15 2
15 4
7 4
6 4
6 4
6 2
7 2
6 4
6 4
6 2
7 2
7 2
7 2
7 4
7 4
7 2
8 2
8 2
8 2
8 4
8 4
8 2
9 2
9 2
9 2
9 4
9 4
6 2
6 2
6 2
7 2
6 4
6 4
6 2
7 2
7 2
7 2
7 4
7 4
6 2
8 2
8 2
8 2
8 4
8 4
8 2
9 2
9 2
9 2
11 4
9 4
8 4
8 4
8 4
8 4
8 4
8 2
9 2
9 2
9 2
9 4
9 4
9 2
11 2
11 2
13 2
11 2
13 2
11 4
11 2
13 2
13 4
13 2
15 2
15 8
16 4
15 4
15 4
15 2
15 2
15 4
11 4
9 4
9 4
9 2
9 2
9 4
9 4
9 2
11 2
11 2
13 2
11 4
11 4
11 2
13 2
13 2
13 2
13 4
13 4
13 2
15 2
15 2
15 2
15 4
15 4
11 2
13 2
11 2
13 2
11 4
11 4
11 2
13 2
13 2
13 2
13 4
13 4
13 2
15 2
15 2
15 2
15 4
15 4
15 4
15 2
15 2
16 4
6 2
7 2
7 2
8 2
8 2
9 2
7 2
6 2
15 4
15 4
15 2
15 2
15 4
7 4
6 2
6 2
6 2
7 2
6 4
6 4
6 1
5 1
7 2
7 8
7 4
7 1
6 1
8 2
8 4
8 4
8 2
7 2
8 2
9 2
9 8
7 4
6 2
6 2
6 2
7 2
6 4
6 4
6 1
5 1
7 2
7 8
7 4
7 1
16 1
8 2
8 4
8 4
8 2
7 2
8 2
9 2
9 4
9 2
11 2
9 4
8 4
8 4
8 4
8 4
8 2
8 2
7 2
9 2
9 8
9 4
9 4
13 4
11 4
11 4
11 4
11 1
9 1
13 2
13 4
13 2
15 2
15 8
16 4
15 4
15 4
15 2
15 2
15 4
11 4
9 4
9 4
9 4
9 4
9 4
9 2
13 2
11 4
15 4
11 4
11 1
9 1
13 2
13 4
13 2
13 2
13 2
11 2
15 4
15 4
0 4
16 2
16 2
11 2
13 2
11 2
13 2
11 4
11 2
9 2
13 4
13 4
0 4
13 2
13 2
13 1
11 1
15 2
15 4
15 4
15 4
15 8
16 4
15 4
15 4
15 2
15 2
16 4
15 4
15 4
15 2
15 2
15 4
9 4
8 4
8 4
8 4
8 4
8 4
8 1
7 1
9 2
9 8
9 4
9 2
13 2
11 4
11 4
11 4
11 1
9 1
13 2
13 4
13 2
15 2
11 2
9 2
9 2
9 2
9 4
9 2
11 2
9 4
9 2
13 2
11 4
0 4
11 4
11 1
9 1
13 2
13 4
13 4
13 2
11 2
15 4
15 8
16 2
16 2
11 2
13 2
11 2
13 2
11 4
11 2
9 2
13 4
13 4
0 4
13 2
13 2
13 1
11 1
15 2
15 4
15 4
15 4
15 8
16 4
15 4
15 4
15 2
15 2
16 4
15 4
15 4
15 2
15 2
15 4
6 2
7 2
7 2
8 2
8 2
9 2
7 2
6 2
15 4
15 4
15 2
15 2
15 4
7 4
6 2
6 2
6 2
7 2
6 4
6 4
6 1
5 1
7 2
7 8
7 4
7 1
6 1
8 2
8 4
8 4
8 4
8 1
7 1
9 2
9 8
7 4
6 2
6 2
6 2
7 2
6 4
6 4
6 1
5 1
7 2
7 8
7 4
7 1
6 1
8 2
8 4
8 4
8 4
8 1
7 1
9 2
9 4
9 2
11 2
9 4
8 2
8 2
8 4
8 4
8 4
8 1
7 1
9 2
9 8
9 4
9 4
13 4
11 4
11 4
11 4
11 1
9 1
13 2
13 4
13 2
15 2
15 8
16 4
15 4
15 4
15 2
15 2
15 4
11 4
9 2
9 2
9 4
9 4
9 4
9 1
8 1
11 2
11 8
11 4
11 1
9 1
13 2
13 4
13 4
13 4
13 2
15 2
15 8
15 4
11 4
11 4
11 2
13 2
11 4
11 1
9 1
13 2
13 8
13 2
13 2
13 1
11 1
15 2
15 4
15 4
15 4
15 8
16 4
15 4
15 4
15 2
15 2
16 4
15 4
15 4
15 2
15 2
15 4
11 4
9 2
9 2
9 4
9 4
9 4
9 1
8 1
11 2
11 8
11 4
11 1
9 1
13 2
13 4
13 4
13 4
13 2
15 2
15 8
15 4
11 4
11 4
11 2
13 2
11 4
11 1
9 1
13 2
13 8
13 2
13 2
13 1
11 1
15 2
15 4
15 4
15 4
15 8
16 4
15 4
15 4
15 2
15 2
16 4
15 4
15 4
15 2
15 2
15 4
6 2
7 2
7 2
8 2
8 2
9 2
7 2
6 2
15 4
15 4
15 2
15 2
15 4
7 4
6 2
6 2
6 2
7 2
6 4
6 4
6 1
5 1
7 2
7 8
7 4
7 1
6 1
8 2
8 4
8 4
8 4
8 1
7 1
9 2
9 8
7 4
6 2
6 2
6 2
7 2
6 4
6 4
6 1
5 1
7 2
7 8
7 4
7 1
6 1
8 2
8 4
8 4
8 4
8 1
7 1
9 2
9 4
11 2
13 2
9 4
8 4
8 4
8 4
8 4
8 4
8 1
7 1
9 2
9 8
9 4
9 4
13 4
11 4
11 4
11 4
11 1
9 1
13 2
13 4
13 2
15 2
15 8
16 4
15 4
15 4
15 2
15 2
15 4
11 4
9 2
9 2
9 4
9 4
9 4
9 1
8 1
11 2
11 8
11 4
11 1
9 1
13 2
13 4
13 4
13 4
13 2
15 2
15 8
15 4
11 4
11 4
11 4
11 2
13 2
11 4
11 1
9 1
13 2
13 8
13 2
13 2
13 1
11 1
15 2
15 4
15 4
15 4
15 8
16 4
15 4
15 4
15 2
15 2
16 4
15 4
15 4
15 2
15 2
15 4
11 4
9 2
9 2
9 4
9 4
9 4
9 1
8 1
11 2
11 8
11 4
11 1
9 1
13 2
13 4
13 4
13 4
13 2
15 2
15 8
15 4
11 4
11 4
11 4
11 2
13 2
11 4
11 1
9 1
13 2
13 8
13 2
13 2
13 1
11 1
15 2
15 4
15 4
15 4
15 8