15 4
9 4
9 4
11 1
13 1
11 2
8 4
11 4
9 4
13 4
11 8
11 4
13 2
11 2
13 8
13 2
15 2
13 2
11 2
15 8
15 4
9 4
9 4
11 1
13 1
11 4
8 2
11 2
9 2
13 2
11 8
11 4
13 2
11 2
13 8
13 2
15 2
13 2
11 2
15 8
15 4
15 2
9 2
9 4
11 1
13 1
11 2
8 2
11 2
9 2
13 2
11 8
11 4
13 2
11 2
13 8
13 2
15 2
13 2
11 2
15 8
15 4
15 2
9 2
9 4
11 1
13 1
11 2
8 2
11 2
9 2
13 2
11 8
11 4
13 2
11 2
13 8
13 2
15 2
13 2
11 2
15 8